com/cloud/common/exception/FocusBusinessException.class
com/cloud/common/util/AlgorithmUtil$Des.class
com/cloud/common/model/IError.class
com/cloud/common/util/PropertiesUtil.class
com/cloud/common/util/ApiResponseUtil.class
com/cloud/common/util/BizNoUtil.class
com/cloud/common/util/DesUtil.class
com/cloud/common/enums/RequestContextEnum.class
com/cloud/common/util/EnumUtil.class
com/cloud/common/util/BeanUtil.class
com/cloud/common/util/JwtUtil.class
com/cloud/common/util/IpUtil.class
com/cloud/common/util/EnvironmentUtil.class
com/cloud/common/model/SpecialError.class
com/cloud/common/util/PasswordUtil.class
com/cloud/common/util/AlgorithmUtil$Md5.class
com/cloud/common/enums/BizNoPropertiesEnum.class
com/cloud/common/model/CommonError.class
com/cloud/common/model/BizException.class
com/cloud/common/vo/PaginationReq.class
com/cloud/common/exception/BusinessException.class
com/cloud/common/vo/Pagination.class
com/cloud/common/util/AlgorithmUtil$SHA1.class
com/cloud/common/util/NumberUtil.class
com/cloud/common/util/MoneyUtil.class
com/cloud/common/exception/ApplicationSystemException.class
com/cloud/common/vo/ApiResponse.class
com/cloud/common/util/AlgorithmUtil.class
com/cloud/common/util/AlgorithmUtil$Unicode.class
com/cloud/common/vo/RequestContext.class
com/cloud/common/util/TokenUtil.class
com/cloud/common/model/SystemException.class
com/cloud/common/exception/FrameworkException.class
com/cloud/common/util/PemUtil.class
com/cloud/common/util/NumericConvertUtils.class
com/cloud/common/exception/HuixianException.class
com/cloud/common/util/AlgorithmUtil$Rsa.class
