/Users/yangcong/OpenResource/steve/cloud-common/src/main/java/com/cloud/common/util/PasswordUtil.java
/Users/yangcong/OpenResource/steve/cloud-common/src/main/java/com/cloud/common/enums/BizNoPropertiesEnum.java
/Users/yangcong/OpenResource/steve/cloud-common/src/main/java/com/cloud/common/exception/HuixianException.java
/Users/yangcong/OpenResource/steve/cloud-common/src/main/java/com/cloud/common/util/BeanUtil.java
/Users/yangcong/OpenResource/steve/cloud-common/src/main/java/com/cloud/common/util/ApiResponseUtil.java
/Users/yangcong/OpenResource/steve/cloud-common/src/main/java/com/cloud/common/util/DesUtil.java
/Users/yangcong/OpenResource/steve/cloud-common/src/main/java/com/cloud/common/vo/Pagination.java
/Users/yangcong/OpenResource/steve/cloud-common/src/main/java/com/cloud/common/util/NumericConvertUtils.java
/Users/yangcong/OpenResource/steve/cloud-common/src/main/java/com/cloud/common/util/EnvironmentUtil.java
/Users/yangcong/OpenResource/steve/cloud-common/src/main/java/com/cloud/common/util/JwtUtil.java
/Users/yangcong/OpenResource/steve/cloud-common/src/main/java/com/cloud/common/vo/RequestContext.java
/Users/yangcong/OpenResource/steve/cloud-common/src/main/java/com/cloud/common/model/SystemException.java
/Users/yangcong/OpenResource/steve/cloud-common/src/main/java/com/cloud/common/util/EnumUtil.java
/Users/yangcong/OpenResource/steve/cloud-common/src/main/java/com/cloud/common/util/NumberUtil.java
/Users/yangcong/OpenResource/steve/cloud-common/src/main/java/com/cloud/common/util/IpUtil.java
/Users/yangcong/OpenResource/steve/cloud-common/src/main/java/com/cloud/common/exception/FocusBusinessException.java
/Users/yangcong/OpenResource/steve/cloud-common/src/main/java/com/cloud/common/util/MoneyUtil.java
/Users/yangcong/OpenResource/steve/cloud-common/src/main/java/com/cloud/common/util/BizNoUtil.java
/Users/yangcong/OpenResource/steve/cloud-common/src/main/java/com/cloud/common/model/IError.java
/Users/yangcong/OpenResource/steve/cloud-common/src/main/java/com/cloud/common/exception/FrameworkException.java
/Users/yangcong/OpenResource/steve/cloud-common/src/main/java/com/cloud/common/model/BizException.java
/Users/yangcong/OpenResource/steve/cloud-common/src/main/java/com/cloud/common/util/PropertiesUtil.java
/Users/yangcong/OpenResource/steve/cloud-common/src/main/java/com/cloud/common/util/AlgorithmUtil.java
/Users/yangcong/OpenResource/steve/cloud-common/src/main/java/com/cloud/common/model/CommonError.java
/Users/yangcong/OpenResource/steve/cloud-common/src/main/java/com/cloud/common/exception/BusinessException.java
/Users/yangcong/OpenResource/steve/cloud-common/src/main/java/com/cloud/common/enums/RequestContextEnum.java
/Users/yangcong/OpenResource/steve/cloud-common/src/main/java/com/cloud/common/util/PemUtil.java
/Users/yangcong/OpenResource/steve/cloud-common/src/main/java/com/cloud/common/vo/ApiResponse.java
/Users/yangcong/OpenResource/steve/cloud-common/src/main/java/com/cloud/common/util/TokenUtil.java
/Users/yangcong/OpenResource/steve/cloud-common/src/main/java/com/cloud/common/model/SpecialError.java
/Users/yangcong/OpenResource/steve/cloud-common/src/main/java/com/cloud/common/exception/ApplicationSystemException.java
/Users/yangcong/OpenResource/steve/cloud-common/src/main/java/com/cloud/common/vo/PaginationReq.java
